MQ9

Inizialmente calcolo i valori per l'aria pulita:
for(100 volte)
	leggo sensorValue e ci faccio la media

Vo = sensorValueMed / 1024 * 5
Rs1 = (5 - Vo)/Vo
R0 =  (l'abbiamo settata noi in modo che il rapporto venga 9.9)
Resistenza iniziale per le prossime misure = Rs/9.9 (dal grafico) 

----------------------

Misurazioni singole:
Leggo sensorValue
Vo = SensorValue / 1024 * 5
Rs2 = (5 - Vo)/Vo
ratio (Rs / Resistenza iniziale per le prossime misure) = Rs2 / Resistenza iniziale per le prossime misure

---------------------

Calcolo ppm:
ppm = 600 * ratio^(1/alpha)
alpha = (log200 - log1000) / (log1.6 - log0.8)

-0,69897000433601880478626110527551
--------------------------------------  =  2,3219280948873623478703194294894
0,30102999566398119521373889472449



