\relax 
\providecommand\hyper@newdestlabel[2]{}
\providecommand\HyperFirstAtBeginDocument{\AtBeginDocument}
\HyperFirstAtBeginDocument{\ifx\hyper@anchor\@undefined
\global\let\oldcontentsline\contentsline
\gdef\contentsline#1#2#3#4{\oldcontentsline{#1}{#2}{#3}}
\global\let\oldnewlabel\newlabel
\gdef\newlabel#1#2{\newlabelxx{#1}#2}
\gdef\newlabelxx#1#2#3#4#5#6{\oldnewlabel{#1}{{#2}{#3}}}
\AtEndDocument{\ifx\hyper@anchor\@undefined
\let\contentsline\oldcontentsline
\let\newlabel\oldnewlabel
\fi}
\fi}
\global\let\hyper@last\relax 
\gdef\HyperFirstAtBeginDocument#1{#1}
\providecommand\HyField@AuxAddToFields[1]{}
\providecommand\HyField@AuxAddToCoFields[2]{}
\providecommand \oddpage@label [2]{}
\select@language{italian}
\@writefile{toc}{\select@language{italian}}
\@writefile{lof}{\select@language{italian}}
\@writefile{lot}{\select@language{italian}}
\select@language{italian}
\@writefile{toc}{\select@language{italian}}
\@writefile{lof}{\select@language{italian}}
\@writefile{lot}{\select@language{italian}}
\@writefile{toc}{\contentsline {section}{\numberline {1}Smart City al giorno d'oggi}{6}{section.1}}
\@writefile{toc}{\contentsline {section}{\numberline {2}Descrizione di AirQualityBox}{7}{section.2}}
\@writefile{toc}{\contentsline {subsection}{\numberline {2.1}AirQualityBox nell'ambito Smart City}{7}{subsection.2.1}}
\@writefile{toc}{\contentsline {subsubsection}{\numberline {2.1.1}Esempio di utilizzo 1}{7}{subsubsection.2.1.1}}
\@writefile{toc}{\contentsline {subsubsection}{\numberline {2.1.2}Esempio di utilizzo 2}{8}{subsubsection.2.1.2}}
\@writefile{toc}{\contentsline {section}{\numberline {3}Livelli di particolato limite per la legge}{9}{section.3}}
\@writefile{lof}{\contentsline {figure}{\numberline {1}{\ignorespaces   Tabella dei valori limite.\relax }}{9}{figure.caption.1}}
\providecommand*\caption@xref[2]{\@setref\relax\@undefined{#1}}
\newlabel{fig:tabval}{{1}{9}{Tabella dei valori limite.\relax }{figure.caption.1}{}}
\@writefile{toc}{\contentsline {section}{\numberline {4}Progettazione e sviluppo}{10}{section.4}}
\@writefile{toc}{\contentsline {subsection}{\numberline {4.1}Sviluppo script}{10}{subsection.4.1}}
\@writefile{lof}{\contentsline {figure}{\numberline {2}{\ignorespaces   Principali componenti del sistema.\relax }}{10}{figure.caption.2}}
\newlabel{fig:overall_system}{{2}{10}{Principali componenti del sistema.\relax }{figure.caption.2}{}}
\@writefile{lof}{\contentsline {figure}{\numberline {3}{\ignorespaces   Schema orientato delle azioni.\relax }}{12}{figure.caption.3}}
\newlabel{fig:actions}{{3}{12}{Schema orientato delle azioni.\relax }{figure.caption.3}{}}
\@writefile{toc}{\contentsline {subsubsection}{\numberline {4.1.1}Controller}{12}{subsubsection.4.1.1}}
\@writefile{toc}{\contentsline {subsubsection}{\numberline {4.1.2}Sensori}{13}{subsubsection.4.1.2}}
\@writefile{lof}{\contentsline {figure}{\numberline {4}{\ignorespaces   Containers dei sensori e loro interfacciamento.\relax }}{13}{figure.caption.4}}
\newlabel{fig:containers}{{4}{13}{Containers dei sensori e loro interfacciamento.\relax }{figure.caption.4}{}}
\@writefile{toc}{\contentsline {subsubsection}{\numberline {4.1.3}Storer}{14}{subsubsection.4.1.3}}
\@writefile{toc}{\contentsline {subsubsection}{\numberline {4.1.4}Misure effettuate e database utilizzati}{14}{subsubsection.4.1.4}}
\@writefile{lof}{\contentsline {figure}{\numberline {5}{\ignorespaces   Screenshot delle applicazione nel nostro account su openshift.com.\relax }}{15}{figure.caption.5}}
\newlabel{fig:openshift}{{5}{15}{Screenshot delle applicazione nel nostro account su openshift.com.\relax }{figure.caption.5}{}}
\@writefile{toc}{\contentsline {paragraph}{\numberline {4.1.4.1}Gestione database locale e online}{15}{paragraph.4.1.4.1}}
\newlabel{dbs}{{4.1.4.1}{15}{Gestione database locale e online}{paragraph.4.1.4.1}{}}
\@writefile{toc}{\contentsline {subsubsection}{\numberline {4.1.5}Sender}{16}{subsubsection.4.1.5}}
\@writefile{toc}{\contentsline {subsubsection}{\numberline {4.1.6}File \textit  {config.json} e Configurator}{16}{subsubsection.4.1.6}}
\newlabel{configurator}{{4.1.6}{16}{File \textit {config.json} e Configurator}{subsubsection.4.1.6}{}}
\@writefile{toc}{\contentsline {paragraph}{\numberline {4.1.6.1}Configurator}{18}{paragraph.4.1.6.1}}
\@writefile{lof}{\contentsline {figure}{\numberline {6}{\ignorespaces   Componenti che dipendono dal file \textit  {config.json}.\relax }}{18}{figure.caption.6}}
\newlabel{fig:config}{{6}{18}{Componenti che dipendono dal file \textit {config.json}.\relax }{figure.caption.6}{}}
\@writefile{toc}{\contentsline {subsubsection}{\numberline {4.1.7}Qualche linea di codice}{18}{subsubsection.4.1.7}}
\@writefile{toc}{\contentsline {paragraph}{\numberline {4.1.7.1}Codice relativo a container\_rain}{18}{paragraph.4.1.7.1}}
\@writefile{toc}{\contentsline {paragraph}{\numberline {4.1.7.2}Procedura all'interno dello Storer}{19}{paragraph.4.1.7.2}}
\@writefile{toc}{\contentsline {paragraph}{\numberline {4.1.7.3}Qualcosa del Sender}{19}{paragraph.4.1.7.3}}
\@writefile{toc}{\contentsline {subsection}{\numberline {4.2}Sviluppo front-end}{19}{subsection.4.2}}
\@writefile{toc}{\contentsline {subsubsection}{\numberline {4.2.1}L'applicazione}{20}{subsubsection.4.2.1}}
\@writefile{lof}{\contentsline {figure}{\numberline {7}{\ignorespaces   Screenshots app Android.\relax }}{21}{figure.caption.7}}
\newlabel{fig:widget}{{7}{21}{Screenshots app Android.\relax }{figure.caption.7}{}}
\@writefile{toc}{\contentsline {subsubsection}{\numberline {4.2.2}Analisi possibile scelta di sviluppo: app nativa}{22}{subsubsection.4.2.2}}
\@writefile{toc}{\contentsline {subsubsection}{\numberline {4.2.3}Analisi possibile scelta di sviluppo: web app}{22}{subsubsection.4.2.3}}
\@writefile{toc}{\contentsline {subsubsection}{\numberline {4.2.4}Analisi possibile scelta di sviluppo: app ibrida}{23}{subsubsection.4.2.4}}
\@writefile{toc}{\contentsline {subsubsection}{\numberline {4.2.5}La scelta: app ibrida}{24}{subsubsection.4.2.5}}
\@writefile{toc}{\contentsline {subsubsection}{\numberline {4.2.6}Progetto: parte front end e back end}{24}{subsubsection.4.2.6}}
\@writefile{toc}{\contentsline {paragraph}{\numberline {4.2.6.1}Parte front end}{25}{paragraph.4.2.6.1}}
\@writefile{toc}{\contentsline {paragraph}{\numberline {4.2.6.2}Parte back end}{25}{paragraph.4.2.6.2}}
\@writefile{lol}{\contentsline {lstlisting}{\numberline {1}Ultimi dati emessi da una stazione}{26}{lstlisting.1}}
\@writefile{toc}{\contentsline {subsubsection}{\numberline {4.2.7}Alcuni accorgimenti}{26}{subsubsection.4.2.7}}
\@writefile{toc}{\contentsline {subsubsection}{\numberline {4.2.8}Deploy su mobile e pc}{27}{subsubsection.4.2.8}}
\@writefile{toc}{\contentsline {paragraph}{\numberline {4.2.8.1}App mobile}{27}{paragraph.4.2.8.1}}
\@writefile{toc}{\contentsline {paragraph}{\numberline {4.2.8.2}App desktop}{27}{paragraph.4.2.8.2}}
\@writefile{toc}{\contentsline {subsection}{\numberline {4.3}Sviluppo Configuratore}{28}{subsection.4.3}}
\newlabel{configuratore_fabio}{{4.3}{28}{Sviluppo Configuratore}{subsection.4.3}{}}
\@writefile{toc}{\contentsline {subsubsection}{\numberline {4.3.1}Dashboard}{28}{subsubsection.4.3.1}}
\@writefile{lof}{\contentsline {figure}{\numberline {8}{\ignorespaces   Widget che mostra il livello di particolato.\relax }}{28}{figure.caption.8}}
\newlabel{fig:widget}{{8}{28}{Widget che mostra il livello di particolato.\relax }{figure.caption.8}{}}
\@writefile{lof}{\contentsline {figure}{\numberline {9}{\ignorespaces   Pagina di Dashboard.\relax }}{29}{figure.caption.9}}
\newlabel{fig:dash_corto}{{9}{29}{Pagina di Dashboard.\relax }{figure.caption.9}{}}
\@writefile{toc}{\contentsline {paragraph}{\numberline {4.3.1.1}Funzionamento}{29}{paragraph.4.3.1.1}}
\@writefile{lof}{\contentsline {figure}{\numberline {10}{\ignorespaces   Funzionamento pagina di Dashboard.\relax }}{30}{figure.caption.10}}
\newlabel{fig:gui-dash}{{10}{30}{Funzionamento pagina di Dashboard.\relax }{figure.caption.10}{}}
\@writefile{toc}{\contentsline {subsubsection}{\numberline {4.3.2}Sensori}{30}{subsubsection.4.3.2}}
\@writefile{lof}{\contentsline {figure}{\numberline {11}{\ignorespaces   Pagina di visualizzazione dati dei Sensori.\relax }}{30}{figure.caption.11}}
\newlabel{fig:sensors_corto}{{11}{30}{Pagina di visualizzazione dati dei Sensori.\relax }{figure.caption.11}{}}
\@writefile{toc}{\contentsline {paragraph}{\numberline {4.3.2.1}Funzionamento}{31}{paragraph.4.3.2.1}}
\@writefile{lof}{\contentsline {figure}{\numberline {12}{\ignorespaces   Funzionamento pagina dei Sensori.\relax }}{31}{figure.caption.12}}
\newlabel{fig:gui-sensors}{{12}{31}{Funzionamento pagina dei Sensori.\relax }{figure.caption.12}{}}
\@writefile{toc}{\contentsline {subsubsection}{\numberline {4.3.3}Impostazioni}{31}{subsubsection.4.3.3}}
\@writefile{lof}{\contentsline {figure}{\numberline {13}{\ignorespaces   Pagina delle impostazioni.\relax }}{32}{figure.caption.13}}
\newlabel{fig:settings_corto}{{13}{32}{Pagina delle impostazioni.\relax }{figure.caption.13}{}}
\@writefile{toc}{\contentsline {paragraph}{\numberline {4.3.3.1}Funzionamento}{32}{paragraph.4.3.3.1}}
\@writefile{lof}{\contentsline {figure}{\numberline {14}{\ignorespaces   Funzionamento richiesta dati, pagina delle impostazioni.\relax }}{32}{figure.caption.14}}
\newlabel{fig:gui-settings-get}{{14}{32}{Funzionamento richiesta dati, pagina delle impostazioni.\relax }{figure.caption.14}{}}
\@writefile{lof}{\contentsline {figure}{\numberline {15}{\ignorespaces   Funzionamento invio dati, pagina delle impostazioni.\relax }}{33}{figure.caption.15}}
\newlabel{fig:gui-settings-post}{{15}{33}{Funzionamento invio dati, pagina delle impostazioni.\relax }{figure.caption.15}{}}
\@writefile{toc}{\contentsline {subsubsection}{\numberline {4.3.4}Struttura del front-end}{33}{subsubsection.4.3.4}}
\@writefile{lof}{\contentsline {figure}{\numberline {16}{\ignorespaces   Struttura file/cartelle di una applicazione Ionic.\relax }}{34}{figure.caption.16}}
\newlabel{fig:struttura-file}{{16}{34}{Struttura file/cartelle di una applicazione Ionic.\relax }{figure.caption.16}{}}
\@writefile{toc}{\contentsline {section}{\numberline {5}Test effettuati}{35}{section.5}}
\@writefile{toc}{\contentsline {section}{\numberline {6}Strumenti usati e linguaggi}{36}{section.6}}
\newlabel{tools}{{6}{36}{Strumenti usati e linguaggi}{section.6}{}}
\@writefile{toc}{\contentsline {subsection}{\numberline {6.1}Database online: \textit  {openshift}}{36}{subsection.6.1}}
\@writefile{lol}{\contentsline {lstlisting}{\numberline {2}Codice utilizzato per salvare i dati di una misurazione di una stazione nel database online.}{36}{lstlisting.2}}
\@writefile{toc}{\contentsline {subsection}{\numberline {6.2}Linguaggio Python}{36}{subsection.6.2}}
\@writefile{toc}{\contentsline {subsubsection}{\numberline {6.2.1}Flask-restful}{37}{subsubsection.6.2.1}}
\@writefile{toc}{\contentsline {subsubsection}{\numberline {6.2.2}Operazioni \textit  {get} e \textit  {post}}{37}{subsubsection.6.2.2}}
\@writefile{toc}{\contentsline {subsection}{\numberline {6.3}RESTClient}{37}{subsection.6.3}}
\@writefile{toc}{\contentsline {subsection}{\numberline {6.4}Ionic Framework}{38}{subsection.6.4}}
\@writefile{toc}{\contentsline {subsection}{\numberline {6.5}Electron framework}{38}{subsection.6.5}}
\@writefile{toc}{\contentsline {subsection}{\numberline {6.6}MongoDb e breve comparativa tra database relazionali e NoSQL}{39}{subsection.6.6}}
\@writefile{toc}{\contentsline {subsection}{\numberline {6.7}Robomongo}{40}{subsection.6.7}}
\newlabel{robomongo}{{6.7}{40}{Robomongo}{subsection.6.7}{}}
\@writefile{lof}{\contentsline {figure}{\numberline {17}{\ignorespaces   Screenshot di Robomongo.\relax }}{40}{figure.caption.17}}
\newlabel{fig:robomongo}{{17}{40}{Screenshot di Robomongo.\relax }{figure.caption.17}{}}
\@writefile{toc}{\contentsline {subsection}{\numberline {6.8}JSON per la comunicazione}{41}{subsection.6.8}}
\@writefile{lol}{\contentsline {lstlisting}{\numberline {3}Decodifica JSON}{41}{lstlisting.3}}
\@writefile{lol}{\contentsline {lstlisting}{\numberline {4}Codifica JSON}{41}{lstlisting.4}}
\@writefile{toc}{\contentsline {subsubsection}{\numberline {6.8.1}BSON}{41}{subsubsection.6.8.1}}
\@writefile{lof}{\contentsline {figure}{\numberline {18}{\ignorespaces   Esempio di formato BSON tratto da MongoDB di AirQualityBox.\relax }}{41}{figure.caption.18}}
\newlabel{fig:BSON}{{18}{41}{Esempio di formato BSON tratto da MongoDB di AirQualityBox.\relax }{figure.caption.18}{}}
\@writefile{toc}{\contentsline {section}{\numberline {7}Problematiche riscontrate}{42}{section.7}}
\@writefile{toc}{\contentsline {subsection}{\numberline {7.1}Campo `link' nel file di configurazione}{42}{subsection.7.1}}
\@writefile{toc}{\contentsline {subsection}{\numberline {7.2}Misura del particolato con Shinyei PPD42NS}{42}{subsection.7.2}}
\@writefile{toc}{\contentsline {subsection}{\numberline {7.3}Documentazione sensore MQ9}{42}{subsection.7.3}}
\@writefile{lof}{\contentsline {figure}{\numberline {19}{\ignorespaces   Fonte: \url  {http://www.arpa.emr.it/}.\relax }}{43}{figure.caption.19}}
\newlabel{fig:pm10}{{19}{43}{Fonte: \url {http://www.arpa.emr.it/}.\relax }{figure.caption.19}{}}
\@writefile{toc}{\contentsline {subsection}{\numberline {7.4}Gestione date con MongoDB}{43}{subsection.7.4}}
\@writefile{toc}{\contentsline {subsection}{\numberline {7.5}Ionic Framework e IOS}{44}{subsection.7.5}}
\@writefile{toc}{\contentsline {section}{\numberline {8}Possibili sviluppi futuri}{45}{section.8}}
\@writefile{toc}{\contentsline {subsection}{\numberline {8.1}Sicurezza}{45}{subsection.8.1}}
\newlabel{security}{{8.1}{45}{Sicurezza}{subsection.8.1}{}}
\@writefile{toc}{\contentsline {subsection}{\numberline {8.2}Altro}{45}{subsection.8.2}}
\@writefile{toc}{\contentsline {subsection}{\numberline {8.3}Miglioramento statistiche}{45}{subsection.8.3}}
\@writefile{toc}{\contentsline {subsection}{\numberline {8.4}Supporto windows phone}{45}{subsection.8.4}}
\@writefile{toc}{\contentsline {subsection}{\numberline {8.5}Sicurezza della comunicazione - File \textit  {config.json}}{45}{subsection.8.5}}
\newlabel{security}{{8.5}{45}{Sicurezza della comunicazione - File \textit {config.json}}{subsection.8.5}{}}
\@writefile{toc}{\contentsline {section}{\numberline {9}Conclusioni}{47}{section.9}}
\@writefile{toc}{\contentsline {section}{\numberline {10}Riferimenti a documenti esterni}{47}{section.10}}
\@writefile{toc}{\contentsline {section}{\numberline {A}Lista dei componenti utilizzati}{48}{appendix.Alph1}}
\newlabel{components}{{A}{48}{Lista dei componenti utilizzati}{appendix.Alph1}{}}
\@writefile{toc}{\contentsline {subsection}{\numberline {A.1}Guida GrovePi+}{48}{subsection.Alph1.1}}
\newlabel{grove}{{A.1}{48}{Guida GrovePi+}{subsection.Alph1.1}{}}
\@writefile{lof}{\contentsline {figure}{\numberline {20}{\ignorespaces   GrovePi+ board.\relax }}{49}{figure.caption.20}}
\newlabel{fig:grovefig}{{20}{49}{GrovePi+ board.\relax }{figure.caption.20}{}}
\@writefile{lof}{\contentsline {figure}{\numberline {21}{\ignorespaces   Architettura software della GrovePi+.\relax }}{49}{figure.caption.21}}
\newlabel{fig:grovearch}{{21}{49}{Architettura software della GrovePi+.\relax }{figure.caption.21}{}}
\@writefile{lof}{\contentsline {figure}{\numberline {22}{\ignorespaces   Output del comando \textit  {sudo i2cdetect -y 1}.\relax }}{50}{figure.caption.22}}
\newlabel{fig:checkgrove}{{22}{50}{Output del comando \textit {sudo i2cdetect -y 1}.\relax }{figure.caption.22}{}}
\@writefile{toc}{\contentsline {subsubsection}{\numberline {A.1.1}Aggiornamento firmware}{50}{subsubsection.Alph1.1.1}}
\@writefile{toc}{\contentsline {subsection}{\numberline {A.2}Sensori e il loro interfacciamento}{51}{subsection.Alph1.2}}
\newlabel{sensors}{{A.2}{51}{Sensori e il loro interfacciamento}{subsection.Alph1.2}{}}
\@writefile{toc}{\contentsline {subsubsection}{\numberline {A.2.1}Sensore di temperatura e di umidit\IeC {\`a}}{51}{subsubsection.Alph1.2.1}}
\newlabel{temp_hum}{{A.2.1}{51}{Sensore di temperatura e di umidità}{subsubsection.Alph1.2.1}{}}
\@writefile{lof}{\contentsline {figure}{\numberline {23}{\ignorespaces   Sensore di temperatura ed umidit\IeC {\`a}.\relax }}{51}{figure.caption.23}}
\newlabel{fig:temp_hum}{{23}{51}{Sensore di temperatura ed umidità.\relax }{figure.caption.23}{}}
\@writefile{toc}{\contentsline {subsubsection}{\numberline {A.2.2}Sensore di pioggia}{51}{subsubsection.Alph1.2.2}}
\@writefile{lof}{\contentsline {figure}{\numberline {24}{\ignorespaces   Sensore di pioggia.\relax }}{52}{figure.caption.24}}
\newlabel{fig:water}{{24}{52}{Sensore di pioggia.\relax }{figure.caption.24}{}}
\@writefile{toc}{\contentsline {subsubsection}{\numberline {A.2.3}Sensore di particolato (Dust)}{52}{subsubsection.Alph1.2.3}}
\newlabel{sensor:dust}{{A.2.3}{52}{Sensore di particolato (Dust)}{subsubsection.Alph1.2.3}{}}
\@writefile{lof}{\contentsline {figure}{\numberline {25}{\ignorespaces   Sensore di particolato.\relax }}{52}{figure.caption.25}}
\newlabel{fig:dust}{{25}{52}{Sensore di particolato.\relax }{figure.caption.25}{}}
\@writefile{lof}{\contentsline {figure}{\numberline {26}{\ignorespaces   Light scattering nel dust sensor.\relax }}{53}{figure.caption.26}}
\newlabel{fig:dust}{{26}{53}{Light scattering nel dust sensor.\relax }{figure.caption.26}{}}
\@writefile{lof}{\contentsline {figure}{\numberline {27}{\ignorespaces   Figura estratta dal datasheet del sensore che mostra come si comporta al rilevamento di particolato.\relax }}{54}{figure.caption.27}}
\newlabel{fig:dust_datashhet}{{27}{54}{Figura estratta dal datasheet del sensore che mostra come si comporta al rilevamento di particolato.\relax }{figure.caption.27}{}}
\@writefile{toc}{\contentsline {subsubsection}{\numberline {A.2.4}Sensore di gas (MQ9)}{55}{subsubsection.Alph1.2.4}}
\newlabel{sensor:mq9}{{A.2.4}{55}{Sensore di gas (MQ9)}{subsubsection.Alph1.2.4}{}}
\@writefile{lof}{\contentsline {figure}{\numberline {28}{\ignorespaces   Sensore di gas MQ9.\relax }}{56}{figure.caption.28}}
\newlabel{fig:mq9}{{28}{56}{Sensore di gas MQ9.\relax }{figure.caption.28}{}}
\@writefile{lof}{\contentsline {figure}{\numberline {29}{\ignorespaces   Output del comando.\relax }}{56}{figure.caption.29}}
\newlabel{fig:output_mq9}{{29}{56}{Output del comando.\relax }{figure.caption.29}{}}
\@writefile{lof}{\contentsline {figure}{\numberline {30}{\ignorespaces   Screenshot di una risposta del forum.\relax }}{56}{figure.caption.30}}
\newlabel{fig:forum_mq9}{{30}{56}{Screenshot di una risposta del forum.\relax }{figure.caption.30}{}}
\@writefile{lof}{\contentsline {figure}{\numberline {31}{\ignorespaces   Grafico di partenza dal sito dei produttori del sensore.\relax }}{57}{figure.caption.31}}
\newlabel{fig:grafico_mq9}{{31}{57}{Grafico di partenza dal sito dei produttori del sensore.\relax }{figure.caption.31}{}}
\@writefile{toc}{\contentsline {subsubsection}{\numberline {A.2.5}Sensore di posizione (GPS)}{59}{subsubsection.Alph1.2.5}}
\@writefile{lof}{\contentsline {figure}{\numberline {32}{\ignorespaces   Dati del GPS.\relax }}{59}{figure.caption.32}}
\newlabel{fig:gps_screen}{{32}{59}{Dati del GPS.\relax }{figure.caption.32}{}}
\@writefile{lof}{\contentsline {figure}{\numberline {33}{\ignorespaces   GPS.\relax }}{60}{figure.caption.33}}
\newlabel{fig:gps}{{33}{60}{GPS.\relax }{figure.caption.33}{}}
\@writefile{toc}{\contentsline {subsection}{\numberline {A.3}Altri componenti}{60}{subsection.Alph1.3}}
\newlabel{other_components}{{A.3}{60}{Altri componenti}{subsection.Alph1.3}{}}
\@writefile{toc}{\contentsline {subsubsection}{\numberline {A.3.1}Ledbar}{60}{subsubsection.Alph1.3.1}}
\@writefile{lof}{\contentsline {figure}{\numberline {34}{\ignorespaces   Ledbar.\relax }}{61}{figure.caption.34}}
\newlabel{fig:ledbar}{{34}{61}{Ledbar.\relax }{figure.caption.34}{}}
\@writefile{toc}{\contentsline {section}{\numberline {B}MongoDB}{62}{appendix.Alph2}}
\newlabel{mongod}{{B}{62}{MongoDB}{appendix.Alph2}{}}
\@writefile{toc}{\contentsline {subsection}{\numberline {B.1}Identificatore di un documento}{62}{subsection.Alph2.1}}
\@writefile{toc}{\contentsline {section}{\numberline {C}Ionic framework}{63}{appendix.Alph3}}
\newlabel{ionic}{{C}{63}{Ionic framework}{appendix.Alph3}{}}
\@writefile{toc}{\contentsline {subsection}{\numberline {C.1}Installazione framework}{63}{subsection.Alph3.1}}
\@writefile{toc}{\contentsline {subsection}{\numberline {C.2}Configurazione del Raspberry per Ionic}{63}{subsection.Alph3.2}}
\@writefile{toc}{\contentsline {subsection}{\numberline {C.3}Debug con browser}{64}{subsection.Alph3.3}}
\@writefile{lof}{\contentsline {figure}{\numberline {35}{\ignorespaces   Screenshot dell'applicazione Ionic di prova.\relax }}{65}{figure.caption.35}}
\newlabel{fig:ionic}{{35}{65}{Screenshot dell'applicazione Ionic di prova.\relax }{figure.caption.35}{}}
\@writefile{toc}{\contentsline {subsection}{\numberline {C.4}Prestazioni in dispositivi datati: Crosswalk}{65}{subsection.Alph3.4}}
\@writefile{toc}{\contentsline {section}{\numberline {D}Electron framework}{67}{appendix.Alph4}}
\newlabel{electron}{{D}{67}{Electron framework}{appendix.Alph4}{}}
\@writefile{toc}{\contentsline {subsection}{\numberline {D.1}Electron packager}{67}{subsection.Alph4.1}}
\@writefile{toc}{\contentsline {section}{\numberline {E}Librerie per applicativo front end}{68}{appendix.Alph5}}
\newlabel{libraries}{{E}{68}{Librerie per applicativo front end}{appendix.Alph5}{}}
\@writefile{toc}{\contentsline {section}{\numberline {F}Google Maps Javascript API}{69}{appendix.Alph6}}
\newlabel{googlemaps}{{F}{69}{Google Maps Javascript API}{appendix.Alph6}{}}
\@writefile{toc}{\contentsline {section}{\numberline {G}Riferimenti esterni}{71}{appendix.Alph7}}
