\BOOKMARK [1][-]{section.1}{Smart City al giorno d'oggi}{}% 1
\BOOKMARK [1][-]{section.2}{Descrizione di AirQualityBox}{}% 2
\BOOKMARK [2][-]{subsection.2.1}{AirQualityBox nell'ambito Smart City}{section.2}% 3
\BOOKMARK [3][-]{subsubsection.2.1.1}{Esempio di utilizzo 1}{subsection.2.1}% 4
\BOOKMARK [3][-]{subsubsection.2.1.2}{Esempio di utilizzo 2}{subsection.2.1}% 5
\BOOKMARK [1][-]{section.3}{Livelli di particolato limite per la legge}{}% 6
\BOOKMARK [1][-]{section.4}{Progettazione e sviluppo}{}% 7
\BOOKMARK [2][-]{subsection.4.1}{Sviluppo script}{section.4}% 8
\BOOKMARK [3][-]{subsubsection.4.1.1}{Controller}{subsection.4.1}% 9
\BOOKMARK [3][-]{subsubsection.4.1.2}{Sensori}{subsection.4.1}% 10
\BOOKMARK [3][-]{subsubsection.4.1.3}{Storer}{subsection.4.1}% 11
\BOOKMARK [3][-]{subsubsection.4.1.4}{Misure effettuate e database utilizzati}{subsection.4.1}% 12
\BOOKMARK [3][-]{subsubsection.4.1.5}{Sender}{subsection.4.1}% 13
\BOOKMARK [3][-]{subsubsection.4.1.6}{File config.json e Configurator}{subsection.4.1}% 14
\BOOKMARK [3][-]{subsubsection.4.1.7}{Qualche linea di codice}{subsection.4.1}% 15
\BOOKMARK [2][-]{subsection.4.2}{Sviluppo front-end}{section.4}% 16
\BOOKMARK [3][-]{subsubsection.4.2.1}{L'applicazione}{subsection.4.2}% 17
\BOOKMARK [3][-]{subsubsection.4.2.2}{Analisi possibile scelta di sviluppo: app nativa}{subsection.4.2}% 18
\BOOKMARK [3][-]{subsubsection.4.2.3}{Analisi possibile scelta di sviluppo: web app}{subsection.4.2}% 19
\BOOKMARK [3][-]{subsubsection.4.2.4}{Analisi possibile scelta di sviluppo: app ibrida}{subsection.4.2}% 20
\BOOKMARK [3][-]{subsubsection.4.2.5}{La scelta: app ibrida}{subsection.4.2}% 21
\BOOKMARK [3][-]{subsubsection.4.2.6}{Progetto: parte front end e back end}{subsection.4.2}% 22
\BOOKMARK [3][-]{subsubsection.4.2.7}{Alcuni accorgimenti}{subsection.4.2}% 23
\BOOKMARK [3][-]{subsubsection.4.2.8}{Deploy su mobile e pc}{subsection.4.2}% 24
\BOOKMARK [2][-]{subsection.4.3}{Sviluppo Configuratore}{section.4}% 25
\BOOKMARK [3][-]{subsubsection.4.3.1}{Dashboard}{subsection.4.3}% 26
\BOOKMARK [3][-]{subsubsection.4.3.2}{Sensori}{subsection.4.3}% 27
\BOOKMARK [3][-]{subsubsection.4.3.3}{Impostazioni}{subsection.4.3}% 28
\BOOKMARK [3][-]{subsubsection.4.3.4}{Struttura del front-end}{subsection.4.3}% 29
\BOOKMARK [1][-]{section.5}{Test effettuati}{}% 30
\BOOKMARK [1][-]{section.6}{Strumenti usati e linguaggi}{}% 31
\BOOKMARK [2][-]{subsection.6.1}{Database online: openshift}{section.6}% 32
\BOOKMARK [2][-]{subsection.6.2}{Linguaggio Python}{section.6}% 33
\BOOKMARK [3][-]{subsubsection.6.2.1}{Flask-restful}{subsection.6.2}% 34
\BOOKMARK [3][-]{subsubsection.6.2.2}{Operazioni get e post}{subsection.6.2}% 35
\BOOKMARK [2][-]{subsection.6.3}{RESTClient}{section.6}% 36
\BOOKMARK [2][-]{subsection.6.4}{Ionic Framework}{section.6}% 37
\BOOKMARK [2][-]{subsection.6.5}{Electron framework}{section.6}% 38
\BOOKMARK [2][-]{subsection.6.6}{MongoDb e breve comparativa tra database relazionali e NoSQL}{section.6}% 39
\BOOKMARK [2][-]{subsection.6.7}{Robomongo}{section.6}% 40
\BOOKMARK [2][-]{subsection.6.8}{JSON per la comunicazione}{section.6}% 41
\BOOKMARK [3][-]{subsubsection.6.8.1}{BSON}{subsection.6.8}% 42
\BOOKMARK [1][-]{section.7}{Problematiche riscontrate}{}% 43
\BOOKMARK [2][-]{subsection.7.1}{Campo `link' nel file di configurazione}{section.7}% 44
\BOOKMARK [2][-]{subsection.7.2}{Misura del particolato con Shinyei PPD42NS}{section.7}% 45
\BOOKMARK [2][-]{subsection.7.3}{Documentazione sensore MQ9}{section.7}% 46
\BOOKMARK [2][-]{subsection.7.4}{Gestione date con MongoDB}{section.7}% 47
\BOOKMARK [2][-]{subsection.7.5}{Ionic Framework e IOS}{section.7}% 48
\BOOKMARK [1][-]{section.8}{Possibili sviluppi futuri}{}% 49
\BOOKMARK [2][-]{subsection.8.1}{Sicurezza}{section.8}% 50
\BOOKMARK [2][-]{subsection.8.2}{Altro}{section.8}% 51
\BOOKMARK [2][-]{subsection.8.3}{Miglioramento statistiche}{section.8}% 52
\BOOKMARK [2][-]{subsection.8.4}{Supporto windows phone}{section.8}% 53
\BOOKMARK [2][-]{subsection.8.5}{Sicurezza della comunicazione - File config.json}{section.8}% 54
\BOOKMARK [1][-]{section.9}{Conclusioni}{}% 55
\BOOKMARK [1][-]{section.10}{Riferimenti a documenti esterni}{}% 56
\BOOKMARK [1][-]{appendix.Alph1}{Lista dei componenti utilizzati}{}% 57
\BOOKMARK [2][-]{subsection.Alph1.1}{Guida GrovePi+}{appendix.Alph1}% 58
\BOOKMARK [3][-]{subsubsection.Alph1.1.1}{Aggiornamento firmware}{subsection.Alph1.1}% 59
\BOOKMARK [2][-]{subsection.Alph1.2}{Sensori e il loro interfacciamento}{appendix.Alph1}% 60
\BOOKMARK [3][-]{subsubsection.Alph1.2.1}{Sensore di temperatura e di umidit\340}{subsection.Alph1.2}% 61
\BOOKMARK [3][-]{subsubsection.Alph1.2.2}{Sensore di pioggia}{subsection.Alph1.2}% 62
\BOOKMARK [3][-]{subsubsection.Alph1.2.3}{Sensore di particolato \(Dust\)}{subsection.Alph1.2}% 63
\BOOKMARK [3][-]{subsubsection.Alph1.2.4}{Sensore di gas \(MQ9\)}{subsection.Alph1.2}% 64
\BOOKMARK [3][-]{subsubsection.Alph1.2.5}{Sensore di posizione \(GPS\)}{subsection.Alph1.2}% 65
\BOOKMARK [2][-]{subsection.Alph1.3}{Altri componenti}{appendix.Alph1}% 66
\BOOKMARK [3][-]{subsubsection.Alph1.3.1}{Ledbar}{subsection.Alph1.3}% 67
\BOOKMARK [1][-]{appendix.Alph2}{MongoDB}{}% 68
\BOOKMARK [2][-]{subsection.Alph2.1}{Identificatore di un documento}{appendix.Alph2}% 69
\BOOKMARK [1][-]{appendix.Alph3}{Ionic framework}{}% 70
\BOOKMARK [2][-]{subsection.Alph3.1}{Installazione framework}{appendix.Alph3}% 71
\BOOKMARK [2][-]{subsection.Alph3.2}{Configurazione del Raspberry per Ionic}{appendix.Alph3}% 72
\BOOKMARK [2][-]{subsection.Alph3.3}{Debug con browser}{appendix.Alph3}% 73
\BOOKMARK [2][-]{subsection.Alph3.4}{Prestazioni in dispositivi datati: Crosswalk}{appendix.Alph3}% 74
\BOOKMARK [1][-]{appendix.Alph4}{Electron framework}{}% 75
\BOOKMARK [2][-]{subsection.Alph4.1}{Electron packager}{appendix.Alph4}% 76
\BOOKMARK [1][-]{appendix.Alph5}{Librerie per applicativo front end}{}% 77
\BOOKMARK [1][-]{appendix.Alph6}{Google Maps Javascript API}{}% 78
\BOOKMARK [1][-]{appendix.Alph7}{Riferimenti esterni}{}% 79
